8.5....7..............4...8..............1.....9...5473.142...557........2...7.61
83.4..7......8.....1...3......5.1.325.3...1.......9.......3........1..8.3...9...7
4..............58........6...28..3............8.....458..9......64....5..5143..78
2.....749...64...2....2....6.....9....5......3.......5.78.............9.41...62.8
3.....1...81......794.........614.7.......4.....5.....15...82..9...5..........9.5
361..5.4.9........2.....1........5....3..6..44.....6...45...8.........6....6.8..5
8..2.........9.7..9.4..82.....734...72...6...........9...........9....61....1.4.7
8...75....5..4..2....6....7..........68...7....5..7......41.........32..289.....3
3.1......9.......6..4...1.7..6...............4..2..6....5.7....738.9..6..9.6....5
8........2....6.....6....85...429.3.................423.1..8..4.....3....89....63
35......2...92.851......3...1..........2.9...8..1.........1.......34..2..3....6.4
17...4..........75........19...7..5.......12.8.........8.....47.....75.....5.86.2
12...93..834....9...........4..............6........5..7.2...4.4.8.3..2..1...4..7
8.1...7...36..4....2..8.6......713................9....7..4.......9.64....47....3
3.....9.89.7.1.2....4.......76.....2..........1........45.7.8...3.....6.1..6....5
2...........2...787.68......7....1...2.1........7..4..........61.2.7......96...21
3...6.......9...8....17........913.......6...7.95...1..7.....25....4......1.5...4
2..83....4........8..1..7...4..17...........1.17................96.4....5.4.91..7
3.27....5.........4.7.8..3.8..4......4...7...27....4..9........7......4....9..8.3
6..8..............3..95.6....3..74..5....47..7.9.....6.67....4......5..2........7
9..5.....4.......2..53.6987..........2....194....1.........7....7.....3.6.9.....1
6...4.2133......7.1.............7....8...1.....76..1...14.2.....5.........3.1...2
3.4....56...........6..14.......3...8.2....9...3..2.1.2.196...5...........8.....9
9...8.6..62....5..84..56.................7.......4....4.9.....553.4...8....1....3
197............9....39.2.7.5.9...2..6..2..........5....15.4..2.7.............6..7
1....5.....64....7..38..1...............5.3......8....7........4..67...563..4.7.9
92.....4....98.7...3....6.1........2...6.4.......2.5.4..3.67..............2..3..6
9.2.63...6........4..2..6...4......6......4.....4......9.3..1......7...5..75..8.2
8....6...1........46...5...........16.5.7........8...6.8.....35....5.7..52..6...4
1.....48.4623.8.......1.......2.......4......2....7...8..7...3.....2....3...6.1.2
3....12.....6.3..4.6...95....7.............9.6.3....4..3...49.......74.....1....3
1..........8....4....7.51....3.....6.7.......8....65.....3....232..54........2.71
7.5...6.....16....6.1..8.....3.9......93...2...64..3.....73......7..........4...3
29....51....4..6...6...1...1...4..........2.....51........34..5.2..7.3.......5..6
3..5..92.....3..........3...6.7......4.3.2..9......87.2.1.....8........76....3..2
15.......27.....31...6....96....8..5..7.......8.16.....3.......8.........9....148
76.1.....9............3.........53........19..3....5..3....6..5..63....4.9...26.3
1....9.2.29..4..53..6.......1............5....2..7...1.8...4.1.....1....7...8...5
9...3..2....8..........6........72..8...5.....7.3.9.........1.2759........19.3..5
8.....42........1.95...8.7.....9..3........84..7...6.1...............8..14.82...3
8....3.........8.6.....89...5......39.31......214.......8...6..4....6....6..2...8
1..8.3.....8.........5.972........9..379.1..42.........9..3.........6........5.13
7...6.1..453.1..6............5.9.......1...85......2.......15.6....8.......4..3.8
6.....42...5........2..4.7..1.....8...7......25........2...7.4.83...6..7..6.....8
79...8...................5....8....4.79.4....14.7.62.9..4............4..5...2.3.8
1.....4.....1....8789.....1.7.........3......6.......53.6.7......1.3.8.7.......54
