8....2.79.....8.54....4.32.6....4.124...9.....1...3..7.61.....5..41.6293..8..7..1
8...5..9.95..8....41.9......7954.8...2.7........3..5....18......956173..3.8..5.17
4956....7..63....1.......6...28.4......571.921....3...8..9..12......79...51.32.78
2....1....3.64951..94..5..6.....7...7...93864.8.......97.2.4.....2.....74...7.258
3.5.6..9.6....53.....3.1..8.3.6.48....8..9.5.......63.....78.4..42.567..8....3.15
361.2...8....132.62..869....76.3.51........9..19...6.....3.1.2...85..4.1..2.....5
8.7...3.4..2.957..9..37...519...4...7.8.56...643.........64....4...23.6..36.....7
8.3..5......941.28...6.8....7.......46832..5....1..9..5..4..8.9....9..6.2897.6..3
36.725.48.8.4.....2...6.13..769.4.1..2.18...........8...5.....9..8.92........8375
8..3.....214.......36.....5...4.91.7..2..1.58.7.6.5....2.56.........38.1.8..14563
35.48.7...6492.....28..7.4.21......34.32....68......7.9.....53.681.....7..7.....4
17.8.4.......93............9...72.53.5738.12.82.4.57.9......9.......75..7.1.4..32
12.6493.......52......824.......318....8..7.42.14....3573...6.....13...99....4..7
8..365....3.....1.....8763..8.6.....6..4.....4...5....172......3..92.4.19.4718.23
3..7...489.74....625.8..1.7..693.51..........41.2....3........973.59....1...4..75
2.........15...678..6..12..9.....1.2.....98.78.17...9...79.23.61.2..45...4....7.1
31.......6.7..4.8.8.4.7.5632....13......8..79.....34.....31...5..3.48...96.2..8.4
2718.....4..2..8..83...47...4.91....6.8..39....7.86.3..2..5.4......42...5...9.3.7
3..............7944....52..859.6.371.4..3.5.9..3..94...3..48..7..1356.....4.....3
6.284..5949...32..3.1.5.6.4.........5....4...7..5.81.....1..5.31..4....29..2.6..7
98...1..3..3..8.12...3...8..4....2.8.268....4.982....6.3......9....9.63.6.94..7.1
675..8..3...1.5..4.4...25..29.35.......2...3.....8.12....5...9.9.28.6.4..6.4..8.2
3.4.2....1.....97.79.58...3.1.6..5...6...5397.5......4..1..7.45.492.8........4..9
9..7...2462...4...84..........51.2....5..78.1.7.9.2....1.8.3.655.....1.2.8...5.93
1.7.8.5..8.26..9..4..9..87..89.1.2......9....2..465.9.3...476...4...9.......3.4.7
1.97.5.8...6.............4.......26.91..56.7..6.3.4.9..5.9.2.36..2..381..3....729
92..3........8.723.3..72..13..7.91..2...1437.17.3....4.9......8...2...3....8..9.6
9...6..416.87.....45.2.16..5.9......82.63..59.....921...53...............6751..92
8.....94.19..4.6..46.92.1...7..34....4...9.28.3.....7..8....2...14....6..29.67..4
1936724..4...58..1..5..46..538............2.8...4..35.8.6..1.3..4...3.......69..2
34.8..2...79.53.84....2...71.7..6.52..27..3.668..9...1....6...5....3...8.2......3
1...........2.364......5..3..3...2.6.7....8.4.91..65..61..7.4......54968..596.3.1
7....4...9..1635.......8......6..7.51..38742...6..1...4...39..2..7..5.64512.....3
2.........1.4..6.886...1.92...94.8..4..3.6..1.3......4....3..25.2.67.....4.29.186
3........1.64...8.75.8..3.6...7.8..4.4...2.59.126..8.......4....95.8..3..7...3492
1.9.....2...5...313.861...9.2.......91..3......31.42....5..19768....7...79..5.1.8
7.3.2845...4..7..1.5...4.........36.2..6.319.6.9..1.....2.76...1..3....45.74....3
1..8..62.29.....53...23.9....7.2......91.5...6....384...2.9......45.7286.61.....5
9......2.6..8..9.72.87....3.6..8....8946....117.......3...75..2..9.18.3.4...6.7.5
8.3...4.562...3..89.1..8.7...869...72.....58443.5.26.1..........9.....4...6....53
8.......2395.42.1........34..4...1....3...2.7....3....2.8.94.7..1987..2..6.3.14.8
17..436..9....7..16..5....8.6.3..19..37...28.21...........3.5.6385..6..2..6.....3
79......34.3219...8...7..52..5......3.9.42.....87.....2.4......93...5.2..164.7.98
6...1.42...5.7.....82..4.7..1..63..2.....8.....8.....452.9..6....415.297.9...2.58
79...8....5....8....1...952.2......43.91..68..4....23....9...7..3768.4...16...398
1...574......2......964.521..5....869135.6....2.7.4.........2..2..935..7..7..1..4
